{
    "KPlugin": {
        "Authors": [
            {
                "Email": "mbedouet@no-log.org",
                "Name": "Matthieu Bedouet",
                "Name[ca@valencia]": "Matthieu Bedouet",
                "Name[ca]": "Matthieu Bedouet",
                "Name[cs]": "Matthieu Bedouet",
                "Name[de]": "Matthieu Bedouet",
                "Name[el]": "Matthieu Bedouet",
                "Name[en_GB]": "Matthieu Bedouet",
                "Name[es]": "Matthieu Bedouet",
                "Name[eu]": "Matthieu Bedouet",
                "Name[fi]": "Matthieu Bedouet",
                "Name[fr]": "Matthieu Bedouet",
                "Name[hu]": "Matthieu Bedouet",
                "Name[ia]": "Matthieu Bedouet",
                "Name[it]": "Matthieu Bedouet",
                "Name[ko]": "Matthieu Bedouet",
                "Name[nl]": "Matthieu Bedouet",
                "Name[pl]": "Matthieu Bedouet",
                "Name[pt]": "Matthieu Bedouet",
                "Name[pt_BR]": "Matthieu Bedouet",
                "Name[sl]": "Matthieu Bedouet",
                "Name[sv]": "Matthieu Bedouet",
                "Name[uk]": "Matthieu Bedouet",
                "Name[x-test]": "xxMatthieu Bedouetxx",
                "Name[zh_CN]": "Matthieu Bedouet"
            }
        ],
        "Category": "AudioDecoder",
        "Description": "Decoding module to decode audio files supported by libsndfile",
        "Description[ar]": "وحدة فكّ ترميز لفكّ ترميز ملفّات الصّوت التي تدعمها libsndfile",
        "Description[bg]": "Декодиране на звукови файлове, поддържани от libsndfile",
        "Description[bs]": "Modul dekodiranja za dekodiranje audio datoteka koje podržava libsndfile",
        "Description[ca@valencia]": "Mòdul de descodificació per a descodificar fitxers d'àudio admesos per la «libsndfile»",
        "Description[ca]": "Mòdul de descodificació per a descodificar fitxers d'àudio admesos per la «libsndfile»",
        "Description[cs]": "Modul pro dekódování audio souborů posporovaných libsndfile",
        "Description[csb]": "Mòdul dekòdërëjący lopczi aùdio wpiséróné przez libsndfile",
        "Description[da]": "Dekodermodul til dekodning af filer som understøttes af libsndfile",
        "Description[de]": "Dekodierungsmodul für Dateien, die von libsndfile unterstützt werden",
        "Description[el]": "Άρθρωμα αποκωδικοποίησης αρχείων ήχου που υποστηρίζονται από τη libsndfile",
        "Description[en_GB]": "Decoding module to decode audio files supported by libsndfile",
        "Description[es]": "Descodificando módulo para descodificar archivos de audio soportados por libsndfile",
        "Description[et]": "Helifailide dekodeerimise moodul, mida toetab libsndfile",
        "Description[eu]": "«libsndfile»k onartzen dituen audio fitxategiak deskodetzeko modulua",
        "Description[fi]": "Libsndfilen tukemien tiedostojen purkumoduuli",
        "Description[fr]": "Module de décodage pour des fichiers audio pris en charge par « libsndfile »",
        "Description[ga]": "Modúl díchódaithe a dhíchódaíonn comhaid fhuaime a dtacaíonn libsndfile leo",
        "Description[gl]": "Módulo de descodificación de ficheiros de son admitidos por libsndfile",
        "Description[he]": "מודול המפענח קבצי שמע הנתמכים על ידי libsndfile",
        "Description[hr]": "Dekoderski modul za dekodiranje audio datoteka koje podržava libsndfile",
        "Description[hu]": "Dekódolómodul a libsndfile által támogatott hangfájlok dekódolásához",
        "Description[ia]": "Modulo decifrante per decifrar filesaudio supportate per libsndfile",
        "Description[id]": "Modul decoding untuk mendekode file-file audio yang didukung oleh libsndfile",
        "Description[it]": "Decodifica modulare per i file audio supportati da libsndfile",
        "Description[ja]": "libsndfile がサポートするオーディオファイルをデコードするモジュール",
        "Description[kk]": "libsndfile танитын дыбыс файлдарының декодер модулі",
        "Description[km]": "ម៉ូឌុល​ឌិកូដ សម្រាប់​​ឌិកូដ​ឯកសារ​អូឌីយ៉ូ​ដែល​​គាំទ្រ​ដោយ libsndfile",
        "Description[ko]": "libsndfile이 지원하는 오디오 파일 디코딩 모듈",
        "Description[lt]": "Dekodavimo modulis dekoduoti audio failus, kuriuos palaiko libsndfile",
        "Description[lv]": "Dekodēšanas modulis failiem, kuri tiek atbalstīti ar libsndfile",
        "Description[mr]": "libsndfile फाईल्स डीकोड करण्याकरिता डीकोडिंग विभाग",
        "Description[nb]": "Modul som dekoder lydfiler som har støtte i libsndfile",
        "Description[nds]": "Dekodeermoduul för de vun \"libsndfile\" ünnerstütt Klangdateien",
        "Description[nl]": "Module voor het decoderen van audiobestanden die ondersteund worden door libsndfile",
        "Description[nn]": "Modul for dekoding av lydfiler støtta av libsndfile",
        "Description[pl]": "Moduł dekodujący pliki audio wspierane przez libsndfile",
        "Description[pt]": "Módulo de descodificação de ficheiros suportados pela 'libsndfile'",
        "Description[pt_BR]": "Módulo de decodificação de arquivos de áudio suportados pela libsndfile",
        "Description[ro]": "Modul de decodare pentru decodarea fișierelor susținute de libsndfile",
        "Description[ru]": "Модуль декодирования файлов, поддерживаемых libsndfile",
        "Description[sk]": "Modul pre dekódovanie zvukových súborov podporovaných libsndfile",
        "Description[sl]": "Dekodirni modul za dekodiranje zvočnih datotek, ki jih podpira libsndfile",
        "Description[sr@ijekavian]": "Модул за декодирање аудио фајлова које подржава libsndfile",
        "Description[sr@ijekavianlatin]": "Modul za dekodiranje audio fajlova koje podržava libsndfile",
        "Description[sr@latin]": "Modul za dekodiranje audio fajlova koje podržava libsndfile",
        "Description[sr]": "Модул за декодирање аудио фајлова које подржава libsndfile",
        "Description[sv]": "Avkodningsmodul för att avkoda ljudfiler som stöds av libsndfile",
        "Description[th]": "มอดูลถอดรหัสแฟ้มเสียงต่าง ๆ ที่ libsndfile รองรับ",
        "Description[tr]": "libsndfile destekli ses dosyalarının kodlarını çözen kod çözme modülü",
        "Description[uk]": "Модуль декодування звукових файлів, що підтримується libsndfile",
        "Description[x-test]": "xxDecoding module to decode audio files supported by libsndfilexx",
        "Description[zh_CN]": "用于解码被 libsndfile 支持的文件的解码模块",
        "Description[zh_TW]": "解碼 libsndfile 支援的音效檔的模組",
        "EnabledByDefault": true,
        "Icon": "preferences-plugin",
        "Id": "k3blibsndfiledecoder",
        "License": "GPL",
        "Name": "K3b Libsndfile Decoder",
        "Name[bg]": "Libsndfile декодер за K3b",
        "Name[bs]": "K3b Libsndfile Dekoder",
        "Name[ca@valencia]": "Descodificador Libsndfile del K3b",
        "Name[ca]": "Descodificador Libsndfile del K3b",
        "Name[cs]": "Libsndfile dekodér K3b",
        "Name[csb]": "Dekòder Libsndfile dlô K3b",
        "Name[da]": "K3b Libsndfile-dekoder",
        "Name[de]": "Libsndfile-Dekodierer",
        "Name[el]": "Αποκωδικοποιητής Libsndfile του K3b",
        "Name[en_GB]": "K3b Libsndfile Decoder",
        "Name[es]": "Descodificador Libsndfile de K3b",
        "Name[et]": "K3b Libsndfile dekodeerija",
        "Name[eu]": "K3b libsndfile deskodetzailea",
        "Name[fi]": "K3b:n Libsndfile-purkaja",
        "Name[fr]": "Décodeur « Libsndfile » pour K3b",
        "Name[ga]": "Díchódóir Libsndfile K3b",
        "Name[gl]": "Descodificador de libsndfile para K3b",
        "Name[he]": "מפענח libsndfile של K3b",
        "Name[hne]": "के3बी लिबसेंडफाइल डिकोडर",
        "Name[hr]": "K3b-ov dekoder Libsndfilea",
        "Name[hu]": "Libsndfile-dekódoló a K3b-hez",
        "Name[ia]": "Decifrator Libsndfile de K3b",
        "Name[id]": "Dekoder Libsndfile K3b",
        "Name[is]": "K3b Libsndfile afkóðari",
        "Name[it]": "Decodificatore Libsndfile di K3b",
        "Name[ja]": "K3b Libsndfile デコーダ",
        "Name[kk]": "K3b Libsndfile декодері",
        "Name[km]": "ឌិកូឌ័រ​ Libsndfile របស់ K3b",
        "Name[ko]": "K3b Libsndfile 디코더",
        "Name[lt]": "K3b Libsndfile dekoderis",
        "Name[lv]": "K3b Libsndfile dekoderis",
        "Name[mr]": "के3बी Libsndfile डीकोडर",
        "Name[nb]": "K3b Libsndfile-dekoder",
        "Name[nds]": "Libsndfile-Dekoderer för K3b",
        "Name[nl]": "K3b Libsndfile-decoder",
        "Name[nn]": "Libsndfile-dekodar for K3b",
        "Name[pa]": "K3b Libsndfile ਡੀਕੋਡਰ",
        "Name[pl]": "Dekoder Libsndfile dla K3b",
        "Name[pt]": "Descodificador da Libsndfile do K3b",
        "Name[pt_BR]": "Decodificador Libsndfile do K3b",
        "Name[ro]": "Decodor K3b Libsndfile",
        "Name[ru]": "Декодер Libsndfile",
        "Name[sk]": "Libsndfile dekodér pre K3b",
        "Name[sl]": "K3b-jev dekodirnik Libsndfile",
        "Name[sq]": "K3b Libsndfile Dekoder",
        "Name[sr@ijekavian]": "libsndfile декодер за К3б",
        "Name[sr@ijekavianlatin]": "libsndfile dekoder za K3b",
        "Name[sr@latin]": "libsndfile dekoder za K3b",
        "Name[sr]": "libsndfile декодер за К3б",
        "Name[sv]": "K3b libsndfile-avkodare",
        "Name[th]": "K3b - ตัวถอดรหัส Libsndfile",
        "Name[tr]": "K3b Libsndfile Çözücü",
        "Name[uk]": "Декодер Libsndfile для K3b",
        "Name[x-test]": "xxK3b Libsndfile Decoderxx",
        "Name[zh_CN]": "K3b Libsndfile 解码器",
        "Name[zh_TW]": "K3b Libsndfile 解碼器",
        "Version": "2.0"
    }
}
